info face="Press Start 2P" size=32 bold=0 italic=0 charset="" unicode=1 stretchH=100 smooth=1 aa=1 padding=0,0,0,0 spacing=1,1 outline=0
common lineHeight=32 base=32 scaleW=256 scaleH=256 pages=3 packed=0 alphaChnl=0 redChnl=4 greenChnl=4 blueChnl=4
page id=0 file="menuFont_0.png"
page id=1 file="menuFont_1.png"
page id=2 file="menuFont_2.png"
chars count=192
char id=32   x=248   y=0     width=3     height=1     xoffset=-1    yoffset=31    xadvance=32    page=0  chnl=15
char id=33   x=195   y=203   width=14    height=28    xoffset=7     yoffset=0     xadvance=32    page=1  chnl=15
char id=34   x=192   y=236   width=22    height=12    xoffset=3     yoffset=0     xadvance=32    page=0  chnl=15
char id=35   x=93    y=0     width=30    height=28    xoffset=-1    yoffset=0     xadvance=32    page=1  chnl=15
char id=36   x=124   y=0     width=30    height=28    xoffset=-1    yoffset=0     xadvance=32    page=1  chnl=15
char id=37   x=155   y=0     width=30    height=28    xoffset=-1    yoffset=0     xadvance=32    page=1  chnl=15
char id=38   x=186   y=0     width=30    height=28    xoffset=-1    yoffset=0     xadvance=32    page=1  chnl=15
char id=39   x=92    y=46    width=10    height=12    xoffset=7     yoffset=0     xadvance=32    page=2  chnl=15
char id=40   x=176   y=203   width=18    height=28    xoffset=7     yoffset=0     xadvance=32    page=1  chnl=15
char id=41   x=100   y=203   width=18    height=28    xoffset=3     yoffset=0     xadvance=32    page=1  chnl=15
char id=42   x=155   y=232   width=30    height=20    xoffset=-1    yoffset=4     xadvance=32    page=1  chnl=15
char id=43   x=182   y=21    width=26    height=20    xoffset=3     yoffset=4     xadvance=32    page=2  chnl=15
char id=44   x=77    y=46    width=14    height=12    xoffset=3     yoffset=20    xadvance=32    page=2  chnl=15
char id=45   x=134   y=249   width=26    height=4     xoffset=3     yoffset=12    xadvance=32    page=0  chnl=15
char id=46   x=186   y=42    width=10    height=8     xoffset=7     yoffset=20    xadvance=32    page=2  chnl=15
char id=47   x=217   y=29    width=30    height=28    xoffset=-1    yoffset=0     xadvance=32    page=0  chnl=15
char id=48   x=0     y=62    width=30    height=28    xoffset=-1    yoffset=0     xadvance=32    page=0  chnl=15
char id=49   x=27    y=145   width=26    height=28    xoffset=3     yoffset=0     xadvance=32    page=1  chnl=15
char id=50   x=62    y=62    width=30    height=28    xoffset=-1    yoffset=0     xadvance=32    page=0  chnl=15
char id=51   x=93    y=62    width=30    height=28    xoffset=-1    yoffset=0     xadvance=32    page=0  chnl=15
char id=52   x=124   y=62    width=30    height=28    xoffset=-1    yoffset=0     xadvance=32    page=0  chnl=15
char id=53   x=155   y=62    width=30    height=28    xoffset=-1    yoffset=0     xadvance=32    page=0  chnl=15
char id=54   x=186   y=62    width=30    height=28    xoffset=-1    yoffset=0     xadvance=32    page=0  chnl=15
char id=55   x=217   y=58    width=30    height=28    xoffset=-1    yoffset=0     xadvance=32    page=0  chnl=15
char id=56   x=0     y=87    width=30    height=28    xoffset=-1    yoffset=0     xadvance=32    page=1  chnl=15
char id=57   x=31    y=91    width=30    height=28    xoffset=-1    yoffset=0     xadvance=32    page=0  chnl=15
char id=58   x=240   y=228   width=10    height=20    xoffset=7     yoffset=4     xadvance=32    page=1  chnl=15
char id=59   x=225   y=228   width=14    height=24    xoffset=3     yoffset=4     xadvance=32    page=1  chnl=15
char id=60   x=54    y=203   width=22    height=28    xoffset=3     yoffset=0     xadvance=32    page=1  chnl=15
char id=61   x=103   y=236   width=30    height=12    xoffset=-1    yoffset=8     xadvance=32    page=0  chnl=15
char id=62   x=77    y=203   width=22    height=28    xoffset=3     yoffset=0     xadvance=32    page=1  chnl=15
char id=63   x=217   y=87    width=30    height=28    xoffset=-1    yoffset=0     xadvance=32    page=0  chnl=15
char id=64   x=0     y=120   width=30    height=28    xoffset=-1    yoffset=0     xadvance=32    page=0  chnl=15
char id=65   x=31    y=120   width=30    height=28    xoffset=-1    yoffset=0     xadvance=32    page=0  chnl=15
char id=66   x=62    y=120   width=30    height=28    xoffset=-1    yoffset=0     xadvance=32    page=0  chnl=15
char id=67   x=93    y=120   width=30    height=28    xoffset=-1    yoffset=0     xadvance=32    page=0  chnl=15
char id=68   x=124   y=120   width=30    height=28    xoffset=-1    yoffset=0     xadvance=32    page=0  chnl=15
char id=69   x=155   y=120   width=30    height=28    xoffset=-1    yoffset=0     xadvance=32    page=0  chnl=15
char id=70   x=186   y=120   width=30    height=28    xoffset=-1    yoffset=0     xadvance=32    page=0  chnl=15
char id=71   x=217   y=116   width=30    height=28    xoffset=-1    yoffset=0     xadvance=32    page=0  chnl=15
char id=72   x=0     y=149   width=30    height=28    xoffset=-1    yoffset=0     xadvance=32    page=0  chnl=15
char id=73   x=135   y=174   width=26    height=28    xoffset=3     yoffset=0     xadvance=32    page=1  chnl=15
char id=74   x=62    y=149   width=30    height=28    xoffset=-1    yoffset=0     xadvance=32    page=0  chnl=15
char id=75   x=93    y=149   width=30    height=28    xoffset=-1    yoffset=0     xadvance=32    page=0  chnl=15
char id=76   x=108   y=145   width=26    height=28    xoffset=3     yoffset=0     xadvance=32    page=1  chnl=15
char id=77   x=155   y=149   width=30    height=28    xoffset=-1    yoffset=0     xadvance=32    page=0  chnl=15
char id=78   x=186   y=149   width=30    height=28    xoffset=-1    yoffset=0     xadvance=32    page=0  chnl=15
char id=79   x=217   y=145   width=30    height=28    xoffset=-1    yoffset=0     xadvance=32    page=0  chnl=15
char id=80   x=0     y=91    width=30    height=28    xoffset=-1    yoffset=0     xadvance=32    page=0  chnl=15
char id=81   x=31    y=178   width=30    height=28    xoffset=-1    yoffset=0     xadvance=32    page=0  chnl=15
char id=82   x=62    y=178   width=30    height=28    xoffset=-1    yoffset=0     xadvance=32    page=0  chnl=15
char id=83   x=93    y=178   width=30    height=28    xoffset=-1    yoffset=0     xadvance=32    page=0  chnl=15
char id=84   x=81    y=174   width=26    height=28    xoffset=3     yoffset=0     xadvance=32    page=1  chnl=15
char id=85   x=155   y=178   width=30    height=28    xoffset=-1    yoffset=0     xadvance=32    page=0  chnl=15
char id=86   x=186   y=178   width=30    height=28    xoffset=-1    yoffset=0     xadvance=32    page=0  chnl=15
char id=87   x=217   y=174   width=30    height=28    xoffset=-1    yoffset=0     xadvance=32    page=0  chnl=15
char id=88   x=0     y=207   width=30    height=28    xoffset=-1    yoffset=0     xadvance=32    page=0  chnl=15
char id=89   x=81    y=145   width=26    height=28    xoffset=3     yoffset=0     xadvance=32    page=1  chnl=15
char id=90   x=62    y=207   width=30    height=28    xoffset=-1    yoffset=0     xadvance=32    page=0  chnl=15
char id=91   x=138   y=203   width=18    height=28    xoffset=7     yoffset=0     xadvance=32    page=1  chnl=15
char id=92   x=124   y=207   width=30    height=28    xoffset=-1    yoffset=0     xadvance=32    page=0  chnl=15
char id=93   x=157   y=203   width=18    height=28    xoffset=3     yoffset=0     xadvance=32    page=1  chnl=15
char id=94   x=126   y=46    width=22    height=8     xoffset=3     yoffset=0     xadvance=32    page=2  chnl=15
char id=95   x=103   y=249   width=30    height=4     xoffset=-1    yoffset=28    xadvance=32    page=0  chnl=15
char id=96   x=197   y=42    width=10    height=8     xoffset=11    yoffset=0     xadvance=32    page=2  chnl=15
char id=97   x=0     y=232   width=30    height=20    xoffset=-1    yoffset=8     xadvance=32    page=1  chnl=15
char id=98   x=93    y=87    width=30    height=28    xoffset=-1    yoffset=0     xadvance=32    page=1  chnl=15
char id=99   x=31    y=232   width=30    height=20    xoffset=-1    yoffset=8     xadvance=32    page=1  chnl=15
char id=100  x=62    y=87    width=30    height=28    xoffset=-1    yoffset=0     xadvance=32    page=1  chnl=15
char id=101  x=62    y=232   width=30    height=20    xoffset=-1    yoffset=8     xadvance=32    page=1  chnl=15
char id=102  x=54    y=145   width=26    height=28    xoffset=3     yoffset=0     xadvance=32    page=1  chnl=15
char id=103  x=93    y=0     width=30    height=24    xoffset=-1    yoffset=8     xadvance=32    page=2  chnl=15
char id=104  x=0     y=58    width=30    height=28    xoffset=-1    yoffset=0     xadvance=32    page=1  chnl=15
char id=105  x=209   y=116   width=26    height=28    xoffset=3     yoffset=0     xadvance=32    page=1  chnl=15
char id=106  x=194   y=0     width=22    height=32    xoffset=3     yoffset=0     xadvance=32    page=0  chnl=15
char id=107  x=62    y=29    width=30    height=28    xoffset=-1    yoffset=0     xadvance=32    page=1  chnl=15
char id=108  x=182   y=116   width=26    height=28    xoffset=3     yoffset=0     xadvance=32    page=1  chnl=15
char id=109  x=186   y=232   width=30    height=20    xoffset=-1    yoffset=8     xadvance=32    page=1  chnl=15
char id=110  x=93    y=25    width=30    height=20    xoffset=-1    yoffset=8     xadvance=32    page=2  chnl=15
char id=111  x=62    y=25    width=30    height=20    xoffset=-1    yoffset=8     xadvance=32    page=2  chnl=15
char id=112  x=62    y=0     width=30    height=24    xoffset=-1    yoffset=8     xadvance=32    page=2  chnl=15
char id=113  x=225   y=203   width=30    height=24    xoffset=-1    yoffset=8     xadvance=32    page=1  chnl=15
char id=114  x=27    y=46    width=26    height=20    xoffset=3     yoffset=8     xadvance=32    page=2  chnl=15
char id=115  x=31    y=25    width=30    height=20    xoffset=-1    yoffset=8     xadvance=32    page=2  chnl=15
char id=116  x=155   y=116   width=26    height=28    xoffset=3     yoffset=0     xadvance=32    page=1  chnl=15
char id=117  x=0     y=25    width=30    height=20    xoffset=-1    yoffset=8     xadvance=32    page=2  chnl=15
char id=118  x=209   y=21    width=26    height=20    xoffset=3     yoffset=8     xadvance=32    page=2  chnl=15
char id=119  x=217   y=0     width=30    height=20    xoffset=-1    yoffset=8     xadvance=32    page=2  chnl=15
char id=120  x=124   y=232   width=30    height=20    xoffset=-1    yoffset=8     xadvance=32    page=1  chnl=15
char id=121  x=31    y=0     width=30    height=24    xoffset=-1    yoffset=8     xadvance=32    page=2  chnl=15
char id=122  x=217   y=232   width=30    height=20    xoffset=-1    yoffset=8     xadvance=32    page=0  chnl=15
char id=123  x=119   y=203   width=18    height=28    xoffset=7     yoffset=0     xadvance=32    page=1  chnl=15
char id=124  x=243   y=145   width=10    height=28    xoffset=11    yoffset=0     xadvance=32    page=1  chnl=15
char id=125  x=236   y=116   width=18    height=28    xoffset=3     yoffset=0     xadvance=32    page=1  chnl=15
char id=126  x=134   y=236   width=30    height=12    xoffset=-1    yoffset=8     xadvance=32    page=0  chnl=15
char id=127  x=103   y=46    width=22    height=8     xoffset=3     yoffset=20    xadvance=32    page=2  chnl=15
char id=160  x=252   y=0     width=3     height=1     xoffset=-1    yoffset=31    xadvance=32    page=0  chnl=15
char id=161  x=210   y=203   width=14    height=28    xoffset=7     yoffset=0     xadvance=32    page=1  chnl=15
char id=162  x=31    y=0     width=30    height=28    xoffset=-1    yoffset=0     xadvance=32    page=1  chnl=15
char id=163  x=62    y=58    width=30    height=28    xoffset=-1    yoffset=0     xadvance=32    page=1  chnl=15
char id=164  x=155   y=21    width=26    height=20    xoffset=3     yoffset=4     xadvance=32    page=2  chnl=15
char id=165  x=189   y=174   width=26    height=28    xoffset=3     yoffset=0     xadvance=32    page=1  chnl=15
char id=166  x=243   y=174   width=10    height=28    xoffset=11    yoffset=0     xadvance=32    page=1  chnl=15
char id=167  x=216   y=174   width=26    height=28    xoffset=3     yoffset=0     xadvance=32    page=1  chnl=15
char id=168  x=208   y=42    width=22    height=4     xoffset=3     yoffset=0     xadvance=32    page=2  chnl=15
char id=169  x=35    y=0     width=34    height=32    xoffset=-1    yoffset=0     xadvance=32    page=0  chnl=15
char id=170  x=0     y=236   width=22    height=16    xoffset=3     yoffset=0     xadvance=32    page=0  chnl=15
char id=171  x=155   y=0     width=30    height=20    xoffset=-1    yoffset=4     xadvance=32    page=2  chnl=15
char id=172  x=165   y=236   width=26    height=12    xoffset=3     yoffset=8     xadvance=32    page=0  chnl=15
char id=173  x=161   y=249   width=26    height=4     xoffset=3     yoffset=12    xadvance=32    page=0  chnl=15
char id=174  x=0     y=0     width=34    height=32    xoffset=-1    yoffset=0     xadvance=32    page=0  chnl=15
char id=175  x=188   y=249   width=22    height=4     xoffset=3     yoffset=0     xadvance=32    page=0  chnl=15
char id=176  x=236   y=21    width=14    height=12    xoffset=7     yoffset=0     xadvance=32    page=2  chnl=15
char id=177  x=27    y=203   width=26    height=28    xoffset=3     yoffset=0     xadvance=32    page=1  chnl=15
char id=178  x=84    y=236   width=18    height=16    xoffset=7     yoffset=0     xadvance=32    page=0  chnl=15
char id=179  x=46    y=236   width=18    height=16    xoffset=7     yoffset=0     xadvance=32    page=0  chnl=15
char id=180  x=164   y=42    width=10    height=8     xoffset=11    yoffset=0     xadvance=32    page=2  chnl=15
char id=181  x=0     y=0     width=30    height=24    xoffset=-1    yoffset=8     xadvance=32    page=2  chnl=15
char id=182  x=0     y=203   width=26    height=28    xoffset=3     yoffset=0     xadvance=32    page=1  chnl=15
char id=183  x=175   y=42    width=10    height=8     xoffset=7     yoffset=12    xadvance=32    page=2  chnl=15
char id=184  x=149   y=46    width=14    height=8     xoffset=7     yoffset=24    xadvance=32    page=2  chnl=15
char id=185  x=65    y=236   width=18    height=16    xoffset=7     yoffset=0     xadvance=32    page=0  chnl=15
char id=186  x=23    y=236   width=22    height=16    xoffset=3     yoffset=0     xadvance=32    page=0  chnl=15
char id=187  x=186   y=0     width=30    height=20    xoffset=-1    yoffset=4     xadvance=32    page=2  chnl=15
char id=188  x=31    y=207   width=30    height=28    xoffset=-1    yoffset=0     xadvance=32    page=0  chnl=15
char id=189  x=124   y=178   width=30    height=28    xoffset=-1    yoffset=0     xadvance=32    page=0  chnl=15
char id=190  x=124   y=149   width=30    height=28    xoffset=-1    yoffset=0     xadvance=32    page=0  chnl=15
char id=191  x=31    y=149   width=30    height=28    xoffset=-1    yoffset=0     xadvance=32    page=0  chnl=15
char id=192  x=31    y=62    width=30    height=28    xoffset=-1    yoffset=0     xadvance=32    page=0  chnl=15
char id=193  x=217   y=0     width=30    height=28    xoffset=-1    yoffset=0     xadvance=32    page=1  chnl=15
char id=194  x=93    y=29    width=30    height=28    xoffset=-1    yoffset=0     xadvance=32    page=1  chnl=15
char id=195  x=124   y=87    width=30    height=28    xoffset=-1    yoffset=0     xadvance=32    page=1  chnl=15
char id=196  x=62    y=116   width=30    height=28    xoffset=-1    yoffset=0     xadvance=32    page=1  chnl=15
char id=197  x=93    y=116   width=30    height=28    xoffset=-1    yoffset=0     xadvance=32    page=1  chnl=15
char id=198  x=124   y=116   width=30    height=28    xoffset=-1    yoffset=0     xadvance=32    page=1  chnl=15
char id=199  x=132   y=0     width=30    height=32    xoffset=-1    yoffset=0     xadvance=32    page=0  chnl=15
char id=200  x=186   y=87    width=30    height=28    xoffset=-1    yoffset=0     xadvance=32    page=1  chnl=15
char id=201  x=31    y=58    width=30    height=28    xoffset=-1    yoffset=0     xadvance=32    page=1  chnl=15
char id=202  x=186   y=29    width=30    height=28    xoffset=-1    yoffset=0     xadvance=32    page=1  chnl=15
char id=203  x=124   y=29    width=30    height=28    xoffset=-1    yoffset=0     xadvance=32    page=1  chnl=15
char id=204  x=27    y=174   width=26    height=28    xoffset=3     yoffset=0     xadvance=32    page=1  chnl=15
char id=205  x=0     y=174   width=26    height=28    xoffset=3     yoffset=0     xadvance=32    page=1  chnl=15
char id=206  x=216   y=145   width=26    height=28    xoffset=3     yoffset=0     xadvance=32    page=1  chnl=15
char id=207  x=189   y=145   width=26    height=28    xoffset=3     yoffset=0     xadvance=32    page=1  chnl=15
char id=208  x=31    y=29    width=30    height=28    xoffset=-1    yoffset=0     xadvance=32    page=1  chnl=15
char id=209  x=0     y=29    width=30    height=28    xoffset=-1    yoffset=0     xadvance=32    page=1  chnl=15
char id=210  x=217   y=203   width=30    height=28    xoffset=-1    yoffset=0     xadvance=32    page=0  chnl=15
char id=211  x=186   y=207   width=30    height=28    xoffset=-1    yoffset=0     xadvance=32    page=0  chnl=15
char id=212  x=155   y=207   width=30    height=28    xoffset=-1    yoffset=0     xadvance=32    page=0  chnl=15
char id=213  x=93    y=207   width=30    height=28    xoffset=-1    yoffset=0     xadvance=32    page=0  chnl=15
char id=214  x=0     y=178   width=30    height=28    xoffset=-1    yoffset=0     xadvance=32    page=0  chnl=15
char id=215  x=54    y=46    width=22    height=20    xoffset=3     yoffset=4     xadvance=32    page=2  chnl=15
char id=216  x=186   y=91    width=30    height=28    xoffset=-1    yoffset=0     xadvance=32    page=0  chnl=15
char id=217  x=155   y=91    width=30    height=28    xoffset=-1    yoffset=0     xadvance=32    page=0  chnl=15
char id=218  x=124   y=91    width=30    height=28    xoffset=-1    yoffset=0     xadvance=32    page=0  chnl=15
char id=219  x=93    y=91    width=30    height=28    xoffset=-1    yoffset=0     xadvance=32    page=0  chnl=15
char id=220  x=62    y=91    width=30    height=28    xoffset=-1    yoffset=0     xadvance=32    page=0  chnl=15
char id=221  x=0     y=145   width=26    height=28    xoffset=3     yoffset=0     xadvance=32    page=1  chnl=15
char id=222  x=186   y=33    width=30    height=28    xoffset=-1    yoffset=0     xadvance=32    page=0  chnl=15
char id=223  x=108   y=174   width=26    height=28    xoffset=3     yoffset=0     xadvance=32    page=1  chnl=15
char id=224  x=155   y=33    width=30    height=28    xoffset=-1    yoffset=0     xadvance=32    page=0  chnl=15
char id=225  x=124   y=33    width=30    height=28    xoffset=-1    yoffset=0     xadvance=32    page=0  chnl=15
char id=226  x=93    y=33    width=30    height=28    xoffset=-1    yoffset=0     xadvance=32    page=0  chnl=15
char id=227  x=62    y=33    width=30    height=28    xoffset=-1    yoffset=0     xadvance=32    page=0  chnl=15
char id=228  x=31    y=33    width=30    height=28    xoffset=-1    yoffset=0     xadvance=32    page=0  chnl=15
char id=229  x=0     y=33    width=30    height=28    xoffset=-1    yoffset=0     xadvance=32    page=0  chnl=15
char id=230  x=124   y=25    width=30    height=20    xoffset=-1    yoffset=8     xadvance=32    page=2  chnl=15
char id=231  x=124   y=0     width=30    height=24    xoffset=-1    yoffset=8     xadvance=32    page=2  chnl=15
char id=232  x=217   y=0     width=30    height=28    xoffset=-1    yoffset=0     xadvance=32    page=0  chnl=15
char id=233  x=31    y=116   width=30    height=28    xoffset=-1    yoffset=0     xadvance=32    page=1  chnl=15
char id=234  x=0     y=116   width=30    height=28    xoffset=-1    yoffset=0     xadvance=32    page=1  chnl=15
char id=235  x=217   y=87    width=30    height=28    xoffset=-1    yoffset=0     xadvance=32    page=1  chnl=15
char id=236  x=162   y=145   width=26    height=28    xoffset=3     yoffset=0     xadvance=32    page=1  chnl=15
char id=237  x=135   y=145   width=26    height=28    xoffset=3     yoffset=0     xadvance=32    page=1  chnl=15
char id=238  x=162   y=174   width=26    height=28    xoffset=3     yoffset=0     xadvance=32    page=1  chnl=15
char id=239  x=54    y=174   width=26    height=28    xoffset=3     yoffset=0     xadvance=32    page=1  chnl=15
char id=240  x=155   y=87    width=30    height=28    xoffset=-1    yoffset=0     xadvance=32    page=1  chnl=15
char id=241  x=31    y=87    width=30    height=28    xoffset=-1    yoffset=0     xadvance=32    page=1  chnl=15
char id=242  x=217   y=58    width=30    height=28    xoffset=-1    yoffset=0     xadvance=32    page=1  chnl=15
char id=243  x=186   y=58    width=30    height=28    xoffset=-1    yoffset=0     xadvance=32    page=1  chnl=15
char id=244  x=155   y=58    width=30    height=28    xoffset=-1    yoffset=0     xadvance=32    page=1  chnl=15
char id=245  x=124   y=58    width=30    height=28    xoffset=-1    yoffset=0     xadvance=32    page=1  chnl=15
char id=246  x=93    y=58    width=30    height=28    xoffset=-1    yoffset=0     xadvance=32    page=1  chnl=15
char id=247  x=0     y=46    width=26    height=20    xoffset=3     yoffset=4     xadvance=32    page=2  chnl=15
char id=248  x=93    y=232   width=30    height=20    xoffset=-1    yoffset=8     xadvance=32    page=1  chnl=15
char id=249  x=217   y=29    width=30    height=28    xoffset=-1    yoffset=0     xadvance=32    page=1  chnl=15
char id=250  x=155   y=29    width=30    height=28    xoffset=-1    yoffset=0     xadvance=32    page=1  chnl=15
char id=251  x=62    y=0     width=30    height=28    xoffset=-1    yoffset=0     xadvance=32    page=1  chnl=15
char id=252  x=0     y=0     width=30    height=28    xoffset=-1    yoffset=0     xadvance=32    page=1  chnl=15
char id=253  x=163   y=0     width=30    height=32    xoffset=-1    yoffset=0     xadvance=32    page=0  chnl=15
char id=254  x=101   y=0     width=30    height=32    xoffset=-1    yoffset=0     xadvance=32    page=0  chnl=15
char id=255  x=70    y=0     width=30    height=32    xoffset=-1    yoffset=0     xadvance=32    page=0  chnl=15
